G04 #@! TF.GenerationSoftware,KiCad,Pcbnew,6.0.0-d3dd2cf0fa~116~ubuntu20.04.1*
G04 #@! TF.CreationDate,2022-02-04T21:57:05+01:00*
G04 #@! TF.ProjectId,pcb,7063622e-6b69-4636-9164-5f7063625858,rev?*
G04 #@! TF.SameCoordinates,Original*
G04 #@! TF.FileFunction,Paste,Top*
G04 #@! TF.FilePolarity,Positive*
%FSLAX46Y46*%
G04 Gerber Fmt 4.6, Leading zero omitted, Abs format (unit mm)*
G04 Created by KiCad (PCBNEW 6.0.0-d3dd2cf0fa~116~ubuntu20.04.1) date 2022-02-04 21:57:05*
%MOMM*%
%LPD*%
G01*
G04 APERTURE LIST*
G04 Aperture macros list*
%AMRoundRect*
0 Rectangle with rounded corners*
0 $1 Rounding radius*
0 $2 $3 $4 $5 $6 $7 $8 $9 X,Y pos of 4 corners*
0 Add a 4 corners polygon primitive as box body*
4,1,4,$2,$3,$4,$5,$6,$7,$8,$9,$2,$3,0*
0 Add four circle primitives for the rounded corners*
1,1,$1+$1,$2,$3*
1,1,$1+$1,$4,$5*
1,1,$1+$1,$6,$7*
1,1,$1+$1,$8,$9*
0 Add four rect primitives between the rounded corners*
20,1,$1+$1,$2,$3,$4,$5,0*
20,1,$1+$1,$4,$5,$6,$7,0*
20,1,$1+$1,$6,$7,$8,$9,0*
20,1,$1+$1,$8,$9,$2,$3,0*%
G04 Aperture macros list end*
%ADD10RoundRect,0.237500X0.237500X-0.250000X0.237500X0.250000X-0.237500X0.250000X-0.237500X-0.250000X0*%
%ADD11RoundRect,0.237500X-0.250000X-0.237500X0.250000X-0.237500X0.250000X0.237500X-0.250000X0.237500X0*%
%ADD12RoundRect,0.237500X-0.300000X-0.237500X0.300000X-0.237500X0.300000X0.237500X-0.300000X0.237500X0*%
%ADD13R,1.800000X2.500000*%
%ADD14RoundRect,0.237500X-0.237500X0.250000X-0.237500X-0.250000X0.237500X-0.250000X0.237500X0.250000X0*%
%ADD15RoundRect,0.250000X0.475000X-0.337500X0.475000X0.337500X-0.475000X0.337500X-0.475000X-0.337500X0*%
%ADD16RoundRect,0.237500X0.250000X0.237500X-0.250000X0.237500X-0.250000X-0.237500X0.250000X-0.237500X0*%
%ADD17RoundRect,0.237500X-0.237500X0.300000X-0.237500X-0.300000X0.237500X-0.300000X0.237500X0.300000X0*%
%ADD18R,2.500000X1.000000*%
%ADD19R,1.000000X1.800000*%
%ADD20R,0.600000X1.100000*%
%ADD21R,0.450000X1.675000*%
%ADD22R,1.500000X2.000000*%
%ADD23R,3.800000X2.000000*%
%ADD24RoundRect,0.150000X-0.587500X-0.150000X0.587500X-0.150000X0.587500X0.150000X-0.587500X0.150000X0*%
%ADD25R,1.000000X1.500000*%
G04 APERTURE END LIST*
D10*
X166857142Y-94891250D03*
X166857142Y-93066250D03*
D11*
X162667500Y-81450000D03*
X164492500Y-81450000D03*
D12*
X186657500Y-81660000D03*
X188382500Y-81660000D03*
D13*
X125100000Y-64110000D03*
X125100000Y-60110000D03*
D11*
X141510000Y-80110000D03*
X143335000Y-80110000D03*
X146127500Y-93280000D03*
X147952500Y-93280000D03*
D14*
X179000000Y-62116250D03*
X179000000Y-63941250D03*
D11*
X142807500Y-62102500D03*
X144632500Y-62102500D03*
D10*
X181142852Y-94891250D03*
X181142852Y-93066250D03*
D14*
X159000000Y-62116250D03*
X159000000Y-63941250D03*
D15*
X135530000Y-83620000D03*
X135530000Y-81545000D03*
D16*
X143335000Y-83000000D03*
X141510000Y-83000000D03*
X144632500Y-64065000D03*
X142807500Y-64065000D03*
D14*
X176142852Y-66613750D03*
X176142852Y-68438750D03*
X167571426Y-66613750D03*
X167571426Y-68438750D03*
D10*
X178285710Y-94891250D03*
X178285710Y-93066250D03*
X166857142Y-90153750D03*
X166857142Y-88328750D03*
D16*
X188480000Y-72715000D03*
X186655000Y-72715000D03*
X143335000Y-85570000D03*
X141510000Y-85570000D03*
X148840000Y-98310000D03*
X147015000Y-98310000D03*
D17*
X135770000Y-60257500D03*
X135770000Y-61982500D03*
D10*
X164000000Y-94891250D03*
X164000000Y-93066250D03*
D16*
X184302500Y-70255000D03*
X182477500Y-70255000D03*
D11*
X147015000Y-96230000D03*
X148840000Y-96230000D03*
D14*
X170428568Y-66613750D03*
X170428568Y-68438750D03*
D10*
X175428568Y-94891250D03*
X175428568Y-93066250D03*
D14*
X173285710Y-66613750D03*
X173285710Y-68438750D03*
D10*
X175428568Y-90153750D03*
X175428568Y-88328750D03*
D17*
X124120000Y-67287500D03*
X124120000Y-69012500D03*
D18*
X131920000Y-97540000D03*
X131920000Y-95540000D03*
X131920000Y-93540000D03*
X131920000Y-91540000D03*
X131920000Y-89540000D03*
X131920000Y-87540000D03*
X131920000Y-85540000D03*
X131920000Y-83540000D03*
D19*
X129320000Y-82040000D03*
X127320000Y-82040000D03*
X125320000Y-82040000D03*
X123320000Y-82040000D03*
X121320000Y-82040000D03*
X119320000Y-82040000D03*
D18*
X116720000Y-83540000D03*
X116720000Y-85540000D03*
X116720000Y-87540000D03*
X116720000Y-89540000D03*
X116720000Y-91540000D03*
X116720000Y-93540000D03*
X116720000Y-95540000D03*
X116720000Y-97540000D03*
D16*
X188480000Y-70227500D03*
X186655000Y-70227500D03*
D14*
X176142852Y-62116250D03*
X176142852Y-63941250D03*
D12*
X128987500Y-65360000D03*
X130712500Y-65360000D03*
D16*
X143335000Y-90710000D03*
X141510000Y-90710000D03*
D14*
X170428568Y-62116250D03*
X170428568Y-63941250D03*
D10*
X169714284Y-90153750D03*
X169714284Y-88328750D03*
D16*
X144632500Y-66027500D03*
X142807500Y-66027500D03*
D14*
X164714284Y-66613750D03*
X164714284Y-68438750D03*
D10*
X172571426Y-94891250D03*
X172571426Y-93066250D03*
D16*
X184302500Y-72742500D03*
X182477500Y-72742500D03*
D20*
X108100000Y-80050000D03*
X106200000Y-80050000D03*
X107150000Y-82250000D03*
D16*
X188480000Y-77710000D03*
X186655000Y-77710000D03*
D10*
X184000000Y-94891250D03*
X184000000Y-93066250D03*
D16*
X184302500Y-75230000D03*
X182477500Y-75230000D03*
D21*
X169125000Y-81873000D03*
X169775000Y-81873000D03*
X170425000Y-81873000D03*
X171075000Y-81873000D03*
X171725000Y-81873000D03*
X172375000Y-81873000D03*
X173025000Y-81873000D03*
X173675000Y-81873000D03*
X174325000Y-81873000D03*
X174975000Y-81873000D03*
X175625000Y-81873000D03*
X176275000Y-81873000D03*
X176275000Y-74897000D03*
X175625000Y-74897000D03*
X174975000Y-74897000D03*
X174325000Y-74897000D03*
X173675000Y-74897000D03*
X173025000Y-74897000D03*
X172375000Y-74897000D03*
X171725000Y-74897000D03*
X171075000Y-74897000D03*
X170425000Y-74897000D03*
X169775000Y-74897000D03*
X169125000Y-74897000D03*
D16*
X184302500Y-67767500D03*
X182477500Y-67767500D03*
D14*
X164714284Y-62116250D03*
X164714284Y-63941250D03*
D16*
X143335000Y-88140000D03*
X141510000Y-88140000D03*
D11*
X146127500Y-90710000D03*
X147952500Y-90710000D03*
D10*
X169714284Y-94891250D03*
X169714284Y-93066250D03*
D22*
X131000000Y-67730000D03*
X128700000Y-67730000D03*
D23*
X128700000Y-74030000D03*
D22*
X126400000Y-67730000D03*
D16*
X188480000Y-75202500D03*
X186655000Y-75202500D03*
D14*
X159000000Y-66613750D03*
X159000000Y-68438750D03*
X161857142Y-66613750D03*
X161857142Y-68438750D03*
D16*
X143335000Y-93280000D03*
X141510000Y-93280000D03*
D14*
X167571426Y-62116250D03*
X167571426Y-63941250D03*
D24*
X138359849Y-63580000D03*
X138359849Y-65480000D03*
X140234849Y-64530000D03*
D16*
X184302500Y-77737500D03*
X182477500Y-77737500D03*
X144632500Y-67990000D03*
X142807500Y-67990000D03*
D10*
X181142852Y-90153750D03*
X181142852Y-88328750D03*
D11*
X106387500Y-85330000D03*
X108212500Y-85330000D03*
D17*
X135280000Y-97605000D03*
X135280000Y-99330000D03*
D10*
X164000000Y-90153750D03*
X164000000Y-88328750D03*
X172571426Y-90153750D03*
X172571426Y-88328750D03*
D11*
X106317500Y-87630000D03*
X108142500Y-87630000D03*
D25*
X140057349Y-52610000D03*
X136857349Y-52610000D03*
X136857349Y-57510000D03*
X140057349Y-57510000D03*
D10*
X178285710Y-90153750D03*
X178285710Y-88328750D03*
D16*
X188480000Y-67740000D03*
X186655000Y-67740000D03*
D10*
X184000000Y-90153750D03*
X184000000Y-88328750D03*
D14*
X173285710Y-62116250D03*
X173285710Y-63941250D03*
D20*
X108220000Y-91280000D03*
X106320000Y-91280000D03*
X107270000Y-93480000D03*
D14*
X161857142Y-62116250D03*
X161857142Y-63941250D03*
X179000000Y-66613750D03*
X179000000Y-68438750D03*
M02*
