M48
; DRILL file {KiCad 6.0.0-d3dd2cf0fa~116~ubuntu20.04.1} date Fri Feb  4 21:57:00 2022
; FORMAT={-:-/ absolute / inch / decimal}
; #@! TF.CreationDate,2022-02-04T21:57:00+01:00
; #@! TF.GenerationSoftware,Kicad,Pcbnew,6.0.0-d3dd2cf0fa~116~ubuntu20.04.1
; #@! TF.FileFunction,Plated,1,2,PTH
FMAT,2
INCH
; #@! TA.AperFunction,Plated,PTH,ViaDrill
T1C0.0157
; #@! TA.AperFunction,Plated,PTH,ComponentDrill
T2C0.0315
; #@! TA.AperFunction,Plated,PTH,ComponentDrill
T3C0.0358
; #@! TA.AperFunction,Plated,PTH,ComponentDrill
T4C0.0374
; #@! TA.AperFunction,Plated,PTH,ComponentDrill
T5C0.0394
%
G90
G05
T1
X4.1366Y-3.7417
X4.3236Y-3.2689
X4.3677Y-3.2732
X4.435Y-3.1697
X4.4354Y-3.1283
X4.5921Y-3.2157
X5.2535Y-2.1028
X5.3272Y-3.9622
X5.4461Y-3.2315
X5.4508Y-2.1161
X5.4587Y-2.3524
X5.4756Y-2.6811
X5.6173Y-2.9945
X5.6431Y-3.6258
X5.6673Y-3.3276
X5.7524Y-3.1496
X5.7535Y-2.8902
X5.7642Y-2.6768
X5.7976Y-3.3756
X5.8972Y-3.4673
X6.1685Y-2.6945
X6.1732Y-3.9189
X6.3157Y-2.6944
X6.3354Y-2.385
X6.45Y-3.372
X6.4799Y-3.8425
X6.5074Y-3.4775
X6.5385Y-2.6944
X6.5547Y-2.385
X6.6228Y-2.9654
X6.7177Y-3.8425
X6.7351Y-3.4775
X6.7429Y-3.1622
X6.7713Y-2.6944
X6.7906Y-2.385
X6.8039Y-3.0177
X6.9637Y-3.4775
X6.9748Y-3.8425
X6.9945Y-2.6944
X7.0524Y-2.9882
X7.0579Y-2.385
X7.1083Y-3.0134
X7.1205Y-2.6878
X7.139Y-2.8295
X7.1425Y-3.0535
X7.1827Y-3.4803
X7.1842Y-2.9086
X7.1843Y-3.8425
X7.2425Y-3.189
X7.3632Y-3.5233
X7.4591Y-3.1815
X7.4657Y-3.0114
X7.4846Y-2.6732
X7.4988Y-2.8244
T2
X5.9055Y-2.524
X6.0433Y-2.524
T3
X4.4957Y-2.4539
X4.4957Y-2.5524
X4.4957Y-2.6508
X4.4957Y-2.7492
T4
X5.759Y-2.127
X5.8574Y-2.127
X5.9558Y-2.127
X6.3563Y-2.0805
X6.3563Y-4.1008
X6.4547Y-2.0805
X6.4547Y-4.1008
X6.5531Y-2.0805
X6.5531Y-4.1008
X6.6516Y-2.0805
X6.6516Y-4.1008
X6.75Y-2.0805
X6.75Y-4.1008
X6.8484Y-2.0805
X6.8484Y-4.1008
X6.9469Y-2.0805
X6.9469Y-4.1008
X7.0453Y-2.0805
X7.0453Y-4.1008
X7.1437Y-2.0805
X7.1437Y-4.1008
X7.2421Y-2.0805
X7.2421Y-4.1008
X7.64Y-2.563
X7.64Y-2.6614
X7.64Y-2.7598
X7.64Y-2.8583
X7.64Y-2.9567
X7.64Y-3.0551
X7.64Y-3.1535
X7.6441Y-3.4937
X7.6441Y-3.5921
X7.6441Y-3.6906
T5
X4.0213Y-3.2106
X4.0213Y-3.3106
X4.0213Y-3.4106
X4.0213Y-3.5106
X4.0213Y-3.6106
X4.0213Y-3.7106
X4.9457Y-2.1417
X5.0441Y-2.1417
X5.8713Y-4.1012
X5.935Y-3.0673
X5.9697Y-4.1012
X6.0297Y-3.7953
X6.1297Y-3.7953
X6.2297Y-3.7953
X6.2343Y-3.0673
T0
M30
