EESchema Schematic File Version 4
EELAYER 30 0
EELAYER END
$Descr A4 11693 8268
encoding utf-8
Sheet 1 1
Title ""
Date ""
Rev ""
Comp ""
Comment1 ""
Comment2 ""
Comment3 ""
Comment4 ""
$EndDescr
$Comp
L Connector:Conn_01x02_Female J1
U 1 1 61D0BFDD
P 1400 900
F 0 "J1" H 1428 876 50  0000 L CNN
F 1 "Conn_01x02_Female" H 1428 785 50  0000 L CNN
F 2 "Connector_JST:JST_XH_B2B-XH-AM_1x02_P2.50mm_Vertical" H 1400 900 50  0001 C CNN
F 3 "~" H 1400 900 50  0001 C CNN
	1    1400 900 
	1    0    0    -1  
$EndComp
$Comp
L power:GND #PWR04
U 1 1 61D0C4BB
P 1200 1000
F 0 "#PWR04" H 1200 750 50  0001 C CNN
F 1 "GND" V 1205 872 50  0000 R CNN
F 2 "" H 1200 1000 50  0001 C CNN
F 3 "" H 1200 1000 50  0001 C CNN
	1    1200 1000
	0    1    1    0   
$EndComp
$Comp
L power:VCC #PWR03
U 1 1 61D0CAE3
P 1200 900
F 0 "#PWR03" H 1200 750 50  0001 C CNN
F 1 "VCC" V 1218 1027 50  0000 L CNN
F 2 "" H 1200 900 50  0001 C CNN
F 3 "" H 1200 900 50  0001 C CNN
	1    1200 900 
	0    -1   -1   0   
$EndComp
$Comp
L power:VCC #PWR01
U 1 1 61D0D798
P 1050 1400
F 0 "#PWR01" H 1050 1250 50  0001 C CNN
F 1 "VCC" V 1068 1527 50  0000 L CNN
F 2 "" H 1050 1400 50  0001 C CNN
F 3 "" H 1050 1400 50  0001 C CNN
	1    1050 1400
	0    -1   -1   0   
$EndComp
$Comp
L pspice:C C2
U 1 1 61D101FC
P 2050 1650
F 0 "C2" H 2228 1696 50  0000 L CNN
F 1 "10µF" H 2228 1605 50  0000 L CNN
F 2 "Capacitor_SMD:C_0603_1608Metric" H 2050 1650 50  0001 C CNN
F 3 "~" H 2050 1650 50  0001 C CNN
	1    2050 1650
	1    0    0    -1  
$EndComp
$Comp
L Regulator_Linear:AMS1117 U1
U 1 1 61D0E7A7
P 1550 1400
F 0 "U1" H 1550 1642 50  0000 C CNN
F 1 "AMS1117" H 1550 1551 50  0000 C CNN
F 2 "Package_TO_SOT_SMD:SOT-223-3_TabPin2" H 1550 1600 50  0001 C CNN
F 3 "http://www.advanced-monolithic.com/pdf/ds1117.pdf" H 1650 1150 50  0001 C CNN
	1    1550 1400
	1    0    0    -1  
$EndComp
$Comp
L pspice:C C1
U 1 1 61D11652
P 1050 1650
F 0 "C1" H 1228 1696 50  0000 L CNN
F 1 "10µF" H 1228 1605 50  0000 L CNN
F 2 "Capacitor_SMD:C_0603_1608Metric" H 1050 1650 50  0001 C CNN
F 3 "~" H 1050 1650 50  0001 C CNN
	1    1050 1650
	1    0    0    -1  
$EndComp
Wire Wire Line
	1850 1400 2050 1400
Wire Wire Line
	1250 1400 1050 1400
$Comp
L power:GND #PWR02
U 1 1 61D162FB
P 1050 1900
F 0 "#PWR02" H 1050 1650 50  0001 C CNN
F 1 "GND" H 1055 1727 50  0000 C CNN
F 2 "" H 1050 1900 50  0001 C CNN
F 3 "" H 1050 1900 50  0001 C CNN
	1    1050 1900
	1    0    0    -1  
$EndComp
$Comp
L power:GND #PWR06
U 1 1 61D174BC
P 2050 1900
F 0 "#PWR06" H 2050 1650 50  0001 C CNN
F 1 "GND" H 2055 1727 50  0000 C CNN
F 2 "" H 2050 1900 50  0001 C CNN
F 3 "" H 2050 1900 50  0001 C CNN
	1    2050 1900
	1    0    0    -1  
$EndComp
Connection ~ 1050 1400
$Comp
L power:+3.3V #PWR05
U 1 1 61D1E267
P 2050 1400
F 0 "#PWR05" H 2050 1250 50  0001 C CNN
F 1 "+3.3V" V 2065 1528 50  0000 L CNN
F 2 "" H 2050 1400 50  0001 C CNN
F 3 "" H 2050 1400 50  0001 C CNN
	1    2050 1400
	0    1    1    0   
$EndComp
Connection ~ 2050 1400
$Comp
L ESP8266:ESP-12E U2
U 1 1 61D09899
P 6450 1350
F 0 "U2" H 6450 2115 50  0000 C CNN
F 1 "ESP-12E" H 6450 2024 50  0000 C CNN
F 2 "ESP8266:ESP-12E" H 6450 1350 50  0001 C CNN
F 3 "http://l0l.org.uk/2014/12/esp8266-modules-hardware-guide-gotta-catch-em-all/" H 6450 1350 50  0001 C CNN
	1    6450 1350
	1    0    0    -1  
$EndComp
$Comp
L power:GND #PWR08
U 1 1 61D0C3D5
P 7350 1750
F 0 "#PWR08" H 7350 1500 50  0001 C CNN
F 1 "GND" V 7355 1622 50  0000 R CNN
F 2 "" H 7350 1750 50  0001 C CNN
F 3 "" H 7350 1750 50  0001 C CNN
	1    7350 1750
	0    -1   -1   0   
$EndComp
$Comp
L power:+3.3V #PWR07
U 1 1 61D12563
P 5550 1750
F 0 "#PWR07" H 5550 1600 50  0001 C CNN
F 1 "+3.3V" V 5565 1878 50  0000 L CNN
F 2 "" H 5550 1750 50  0001 C CNN
F 3 "" H 5550 1750 50  0001 C CNN
	1    5550 1750
	0    -1   -1   0   
$EndComp
$Comp
L power:GND #PWR0101
U 1 1 61D1F7B7
P 1550 1700
F 0 "#PWR0101" H 1550 1450 50  0001 C CNN
F 1 "GND" H 1555 1527 50  0000 C CNN
F 2 "" H 1550 1700 50  0001 C CNN
F 3 "" H 1550 1700 50  0001 C CNN
	1    1550 1700
	1    0    0    -1  
$EndComp
Wire Notes Line
	2650 700  2650 2400
Wire Notes Line
	2650 2400 650  2400
Wire Notes Line
	650  2400 650  700 
Wire Notes Line
	650  700  2650 700 
$Comp
L Connector_Generic:Conn_01x06 J?
U 1 1 61D2A873
P 4200 1250
F 0 "J?" H 4280 1242 50  0000 L CNN
F 1 "Programming" H 4280 1151 50  0000 L CNN
F 2 "" H 4200 1250 50  0001 C CNN
F 3 "~" H 4200 1250 50  0001 C CNN
	1    4200 1250
	1    0    0    -1  
$EndComp
$Comp
L power:GND #PWR?
U 1 1 61D2DED3
P 4000 1550
F 0 "#PWR?" H 4000 1300 50  0001 C CNN
F 1 "GND" V 4005 1422 50  0000 R CNN
F 2 "" H 4000 1550 50  0001 C CNN
F 3 "" H 4000 1550 50  0001 C CNN
	1    4000 1550
	0    1    1    0   
$EndComp
$Comp
L power:VCC #PWR?
U 1 1 61D2E33C
P 4000 1350
F 0 "#PWR?" H 4000 1200 50  0001 C CNN
F 1 "VCC" V 4018 1477 50  0000 L CNN
F 2 "" H 4000 1350 50  0001 C CNN
F 3 "" H 4000 1350 50  0001 C CNN
	1    4000 1350
	0    -1   -1   0   
$EndComp
Text GLabel 4000 1050 0    50   Input ~ 0
DTR
Text GLabel 4000 1150 0    50   Input ~ 0
TX
Text GLabel 4000 1250 0    50   Input ~ 0
RX
Text GLabel 4000 1450 0    50   Input ~ 0
RC
Text GLabel 7350 1050 2    50   Input ~ 0
TX
Text GLabel 7350 1150 2    50   Input ~ 0
RX
Text GLabel 7350 1250 2    50   Input ~ 0
GPIO05
Text GLabel 7350 1350 2    50   Input ~ 0
GPIO04
Text GLabel 7350 1450 2    50   Input ~ 0
GPIO0
Text GLabel 7350 1550 2    50   Input ~ 0
GPIO02
Text GLabel 7350 1650 2    50   Input ~ 0
GPIO15
Text GLabel 5550 1050 0    50   Input ~ 0
RST
Text GLabel 5550 1150 0    50   Input ~ 0
ADC
Text GLabel 5550 1350 0    50   Input ~ 0
GPIO16
Text GLabel 5550 1450 0    50   Input ~ 0
GPIO14
Text GLabel 5550 1550 0    50   Input ~ 0
GPIO12
Text GLabel 5550 1650 0    50   Input ~ 0
GPIO13
Text GLabel 6300 2250 3    50   Input ~ 0
MISO
Text GLabel 6400 2250 3    50   Input ~ 0
GPIO09
Text GLabel 6500 2250 3    50   Input ~ 0
GPIO10
Text GLabel 6600 2250 3    50   Input ~ 0
MOSI
Text GLabel 6700 2250 3    50   Input ~ 0
SCLK
$EndSCHEMATC
